GFORTRAN module version '0' created from functions.f90 on Tue Jul  9 18:10:27 2013
MD5:59f8a12b3717a40eb2674d27e41ac0e9 -- If you edit this, you'll get what you deserve.

(() () () () () () () () () () () () () () () () () () () () () () () ()
() () ())

()

()

()

()

(2 'f_sqrt' 'functions' 'f_sqrt' 1 ((PROCEDURE UNKNOWN-INTENT
MODULE-PROC DECL UNKNOWN FUNCTION) (REAL 8 0 0 REAL ()) 3 0 (4) () 2 ()
() () 0 0)
5 'fprime_sqrt' 'functions' 'fprime_sqrt' 1 ((PROCEDURE UNKNOWN-INTENT
MODULE-PROC DECL UNKNOWN FUNCTION) (REAL 8 0 0 REAL ()) 6 0 (7) () 5 ()
() () 0 0)
8 'functions' 'functions' 'functions' 1 ((MODULE UNKNOWN-INTENT
UNKNOWN-PROC UNKNOWN UNKNOWN) (UNKNOWN 0 0 0 UNKNOWN ()) 0 0 () () 0 ()
() () 0 0)
4 'x' '' 'x' 3 ((VARIABLE IN UNKNOWN-PROC UNKNOWN UNKNOWN DUMMY) (REAL 8
0 0 REAL ()) 0 0 () () 0 () () () 0 0)
7 'x' '' 'x' 6 ((VARIABLE IN UNKNOWN-PROC UNKNOWN UNKNOWN DUMMY) (REAL 8
0 0 REAL ()) 0 0 () () 0 () () () 0 0)
)

('f_sqrt' 0 2 'fprime_sqrt' 0 5 'functions' 0 8)
