GFORTRAN module version '0' created from newton.f90 on Tue Jul  9 18:10:27 2013
MD5:0f3da13a0733e3b1a2fcc0808d6e5e4b -- If you edit this, you'll get what you deserve.

(() () () () () () () () () () () () () () () () () () () () () () () ()
() () ())

()

()

()

()

(2 'maxiter' 'newton' 'maxiter' 1 ((PARAMETER UNKNOWN-INTENT
UNKNOWN-PROC UNKNOWN IMPLICIT-SAVE) (INTEGER 4 0 0 INTEGER ()) 0 0 () (
CONSTANT (INTEGER 4 0 0 INTEGER ()) 0 '20') () 0 () () () 0 0)
3 'newton' 'newton' 'newton' 1 ((MODULE UNKNOWN-INTENT UNKNOWN-PROC
UNKNOWN UNKNOWN) (UNKNOWN 0 0 0 UNKNOWN ()) 0 0 () () 0 () () () 0 0)
4 'solve' 'newton' 'solve' 1 ((PROCEDURE UNKNOWN-INTENT MODULE-PROC DECL
UNKNOWN SUBROUTINE) (UNKNOWN 0 0 0 UNKNOWN ()) 5 0 (6 7 8 9 10 11) () 0
() () () 0 0)
12 'tol' 'newton' 'tol' 1 ((PARAMETER UNKNOWN-INTENT UNKNOWN-PROC
UNKNOWN IMPLICIT-SAVE) (REAL 8 0 0 REAL ()) 0 0 () (CONSTANT (REAL 8 0 0
REAL ()) 0 '0.2d09370d425736@-11') () 0 () () () 0 0)
6 'f' '' 'f' 5 ((PROCEDURE UNKNOWN-INTENT DUMMY-PROC UNKNOWN UNKNOWN
EXTERNAL DUMMY FUNCTION) (REAL 8 0 0 REAL ()) 0 0 () () 6 () () () 0 0)
7 'fp' '' 'fp' 5 ((PROCEDURE UNKNOWN-INTENT DUMMY-PROC UNKNOWN UNKNOWN
EXTERNAL DUMMY FUNCTION) (REAL 8 0 0 REAL ()) 0 0 () () 7 () () () 0 0)
8 'x0' '' 'x0' 5 ((VARIABLE IN UNKNOWN-PROC UNKNOWN UNKNOWN DUMMY) (
REAL 8 0 0 REAL ()) 0 0 () () 0 () () () 0 0)
9 'x' '' 'x' 5 ((VARIABLE OUT UNKNOWN-PROC UNKNOWN UNKNOWN DUMMY) (REAL
8 0 0 REAL ()) 0 0 () () 0 () () () 0 0)
10 'iters' '' 'iters' 5 ((VARIABLE OUT UNKNOWN-PROC UNKNOWN UNKNOWN
DUMMY) (INTEGER 4 0 0 INTEGER ()) 0 0 () () 0 () () () 0 0)
11 'debug' '' 'debug' 5 ((VARIABLE IN UNKNOWN-PROC UNKNOWN UNKNOWN DUMMY)
(LOGICAL 4 0 0 LOGICAL ()) 0 0 () () 0 () () () 0 0)
)

('maxiter' 0 2 'newton' 0 3 'solve' 0 4 'tol' 0 12)
